<svg width="2519" height="522" viewBox="0 0 2519 522" fill="none" xmlns="http://www.w3.org/2000/svg">
<g clip-path="url(#clip0)">
<path fill-rule="evenodd" clip-rule="evenodd" d="M160.758 0.897598C167.425 0.897598 173.819 3.54532 178.534 8.25828C183.249 12.9712 185.897 19.3634 185.897 26.0285V461.629C185.897 468.295 183.249 474.687 178.534 479.4C173.819 484.113 167.425 486.76 160.758 486.76C154.09 486.76 147.696 484.113 142.981 479.4C138.267 474.687 135.618 468.295 135.618 461.629V26.0285C135.618 19.3634 138.267 12.9712 142.981 8.25828C147.696 3.54532 154.09 0.897598 160.758 0.897598V0.897598ZM227.795 42.7814C231.097 42.7814 234.366 43.4315 237.416 44.6944C240.466 45.9573 243.237 47.8085 245.572 50.1421C247.906 52.4757 249.758 55.2461 251.021 58.2952C252.284 61.3442 252.935 64.6121 252.935 67.9124V419.742C252.935 426.407 250.286 432.8 245.572 437.513C240.857 442.226 234.463 444.873 227.795 444.873C221.128 444.873 214.733 442.226 210.019 437.513C205.304 432.8 202.656 426.407 202.656 419.742V67.9124C202.656 61.2472 205.304 54.8551 210.019 50.1421C214.733 45.4291 221.128 42.7814 227.795 42.7814V42.7814ZM93.7201 76.2904C100.387 76.2904 106.782 78.9381 111.496 83.6511C116.211 88.3641 118.86 94.7562 118.86 101.421V386.237C118.86 392.902 116.211 399.294 111.496 404.007C106.782 408.72 100.387 411.367 93.7201 411.367C87.0527 411.367 80.6583 408.72 75.9437 404.007C71.2292 399.294 68.5806 392.902 68.5806 386.237V101.421C68.5806 94.7562 71.2292 88.3641 75.9437 83.6511C80.6583 78.9381 87.0527 76.2904 93.7201 76.2904V76.2904ZM428.911 109.796C435.579 109.796 441.973 112.444 446.688 117.157C451.402 121.87 454.051 128.262 454.051 134.927V352.728C454.051 359.393 451.402 365.785 446.688 370.498C441.973 375.211 435.579 377.858 428.911 377.858C422.244 377.858 415.85 375.211 411.135 370.498C406.42 365.785 403.772 359.393 403.772 352.728V134.927C403.772 128.262 406.42 121.87 411.135 117.157C415.85 112.444 422.244 109.796 428.911 109.796V109.796ZM294.836 109.796C301.503 109.796 307.898 112.444 312.612 117.157C317.327 121.87 319.976 128.262 319.976 134.927V352.728C319.976 359.393 317.327 365.785 312.612 370.498C307.898 375.211 301.503 377.858 294.836 377.858C288.169 377.858 281.774 375.211 277.06 370.498C272.345 365.785 269.697 359.393 269.697 352.728V134.927C269.697 131.627 270.347 128.359 271.61 125.31C272.874 122.261 274.725 119.49 277.06 117.157C279.394 114.823 282.166 112.972 285.216 111.709C288.266 110.446 291.535 109.796 294.836 109.796V109.796ZM361.874 151.683C368.541 151.683 374.935 154.331 379.65 159.044C384.365 163.757 387.013 170.149 387.013 176.814V310.844C387.013 317.509 384.365 323.901 379.65 328.614C374.935 333.327 368.541 335.975 361.874 335.975C355.206 335.975 348.812 333.327 344.097 328.614C339.383 323.901 336.734 317.509 336.734 310.844V176.814C336.734 173.514 337.384 170.246 338.648 167.197C339.911 164.148 341.763 161.378 344.097 159.044C346.432 156.71 349.203 154.859 352.253 153.596C355.303 152.333 358.572 151.683 361.874 151.683ZM26.6825 176.814C33.3499 176.814 39.7442 179.462 44.4588 184.175C49.1734 188.888 51.822 195.28 51.822 201.945V277.338C51.8215 284.003 49.1725 290.395 44.4576 295.108C39.7428 299.82 33.3483 302.468 26.6809 302.467C20.0134 302.467 13.6193 299.819 8.90501 295.105C4.19074 290.392 1.54254 284 1.54297 277.335V201.942C1.54383 195.277 4.19283 188.886 8.90731 184.174C13.6218 179.461 20.0156 176.814 26.6825 176.814V176.814Z" fill="#F6AE2D"/>
<path fill-rule="evenodd" clip-rule="evenodd" d="M495.948 185.189C502.616 185.189 509.01 187.837 513.725 192.55C518.439 197.263 521.088 203.655 521.088 210.32V277.335C521.088 284 518.439 290.392 513.725 295.105C509.01 299.818 502.616 302.466 495.948 302.466C489.281 302.466 482.886 299.818 478.172 295.105C473.457 290.392 470.809 284 470.809 277.335V210.32C470.809 203.655 473.457 197.263 478.172 192.55C482.886 187.837 489.281 185.189 495.948 185.189V185.189Z" fill="#4ECDC4"/>
<path opacity="0.9" fill-rule="evenodd" clip-rule="evenodd" d="M428.912 109.796C435.579 109.796 441.974 112.444 446.688 117.157C451.403 121.87 454.051 128.262 454.051 134.927V352.728C454.051 359.393 451.403 365.785 446.688 370.498C441.974 375.211 435.579 377.858 428.912 377.858C422.245 377.858 415.85 375.211 411.136 370.498C406.421 365.785 403.772 359.393 403.772 352.728V134.927C403.772 128.262 406.421 121.87 411.136 117.157C415.85 112.444 422.245 109.796 428.912 109.796V109.796Z" fill="#4ECDC4"/>
<path opacity="0.75" fill-rule="evenodd" clip-rule="evenodd" d="M361.873 151.683C368.54 151.683 374.935 154.331 379.649 159.044C384.364 163.757 387.012 170.149 387.012 176.814V310.844C387.012 317.509 384.364 323.901 379.649 328.614C374.935 333.327 368.54 335.975 361.873 335.975C355.205 335.975 348.811 333.327 344.097 328.614C339.382 323.901 336.733 317.509 336.733 310.844V176.814C336.733 173.514 337.384 170.246 338.647 167.197C339.91 164.148 341.762 161.378 344.097 159.044C346.431 156.71 349.202 154.859 352.252 153.596C355.302 152.333 358.572 151.683 361.873 151.683Z" fill="#4ECDC4"/>
<path opacity="0.6" fill-rule="evenodd" clip-rule="evenodd" d="M294.836 109.796C301.503 109.796 307.898 112.444 312.612 117.157C317.327 121.87 319.975 128.262 319.975 134.927V352.728C319.975 359.393 317.327 365.785 312.612 370.498C307.898 375.211 301.503 377.858 294.836 377.858C288.168 377.858 281.774 375.211 277.059 370.498C272.345 365.785 269.696 359.393 269.696 352.728V134.927C269.696 128.262 272.345 121.87 277.059 117.157C281.774 112.444 288.168 109.796 294.836 109.796V109.796Z" fill="#4ECDC4"/>
<path opacity="0.45" fill-rule="evenodd" clip-rule="evenodd" d="M227.795 42.7814C234.462 42.7814 240.856 45.4291 245.571 50.1421C250.286 54.855 252.934 61.2472 252.934 67.9123V419.742C252.934 426.407 250.286 432.799 245.571 437.512C240.856 442.225 234.462 444.873 227.795 444.873C221.127 444.873 214.733 442.225 210.018 437.512C205.304 432.799 202.655 426.407 202.655 419.742V67.9123C202.655 61.2472 205.304 54.855 210.018 50.1421C214.733 45.4291 221.127 42.7814 227.795 42.7814V42.7814Z" fill="#4ECDC4"/>
<path opacity="0.3" fill-rule="evenodd" clip-rule="evenodd" d="M160.758 0.897598C167.425 0.897598 173.819 3.54532 178.534 8.25828C183.249 12.9712 185.897 19.3634 185.897 26.0285V461.629C185.897 468.295 183.249 474.687 178.534 479.4C173.819 484.113 167.425 486.76 160.758 486.76C154.09 486.76 147.696 484.113 142.981 479.4C138.267 474.687 135.618 468.295 135.618 461.629V26.0285C135.618 19.3634 138.267 12.9712 142.981 8.25828C147.696 3.54532 154.09 0.897598 160.758 0.897598V0.897598Z" fill="#4ECDC4"/>
<path opacity="0.15" fill-rule="evenodd" clip-rule="evenodd" d="M93.7194 76.2904C100.387 76.2904 106.781 78.9381 111.496 83.6511C116.21 88.364 118.859 94.7562 118.859 101.421V386.236C118.859 392.901 116.21 399.293 111.496 404.006C106.781 408.719 100.387 411.367 93.7194 411.367C87.0521 411.367 80.6578 408.719 75.9432 404.006C71.2287 399.293 68.5801 392.901 68.5801 386.236V101.421C68.5801 94.7562 71.2287 88.364 75.9432 83.6511C80.6578 78.9381 87.0521 76.2904 93.7194 76.2904V76.2904Z" fill="#4ECDC4"/>
</g>
<path d="M743.709 150.057C743.709 152.325 742.575 154.268 740.307 155.888C738.039 157.183 735.447 158.155 732.531 158.803C729.939 159.451 727.346 159.937 724.754 160.261C722.162 160.584 720.542 160.746 719.894 160.746C713.09 160.746 706.285 158.803 699.481 154.916C693 151.029 687.006 144.875 681.498 136.453C680.85 135.482 679.878 134.186 678.582 132.566C677.286 130.947 676.637 129.813 676.637 129.165C676.637 127.546 677.772 126.088 680.04 124.793C682.632 123.497 685.386 122.201 688.302 120.906C691.542 119.61 694.459 118.638 697.051 117.99C699.967 117.343 701.911 117.019 702.883 117.019C709.363 117.019 715.682 118.638 721.838 121.877C728.318 125.116 733.503 131.109 737.391 139.854C738.039 140.826 739.173 142.607 740.793 145.199C742.737 147.466 743.709 149.086 743.709 150.057ZM756.346 329.341C756.346 331.284 755.536 332.904 753.916 334.199C752.62 335.171 751 335.981 749.056 336.629C747.112 337.276 745.329 337.762 743.709 338.086C742.089 338.41 740.955 338.572 740.307 338.572L731.559 337.6V434.287C731.559 436.23 731.397 439.632 731.073 444.49C731.073 449.673 730.587 455.503 729.615 461.981C728.966 468.459 727.67 475.099 725.726 481.902C724.106 488.704 721.676 494.858 718.436 500.364C715.196 506.195 711.145 510.891 706.285 514.454C701.425 518.341 695.431 520.285 688.302 520.285C687.978 520.285 686.52 520.123 683.928 519.799C681.66 519.475 679.068 519.151 676.151 518.827C673.235 518.503 670.481 518.179 667.889 517.855C665.297 517.532 663.515 517.37 662.543 517.37C645.37 515.426 633.705 510.405 627.549 502.308C621.068 494.21 617.828 484.331 617.828 472.67C617.828 461.009 619.61 448.701 623.174 435.745C626.739 422.788 631.761 409.994 638.241 397.361C644.722 385.053 652.498 373.23 661.571 361.894C670.967 350.557 681.498 340.677 693.162 332.256V219.05C692.838 217.106 692.514 215.001 692.19 212.734C692.19 210.142 692.19 208.523 692.19 207.875C692.19 200.101 696.403 196.214 704.827 196.214C705.475 196.214 707.581 196.538 711.145 197.186C715.034 197.51 718.922 198.158 722.81 199.13C727.022 200.101 730.749 201.397 733.989 203.016C737.553 204.312 739.335 205.932 739.335 207.875C739.335 208.847 738.687 210.142 737.391 211.762C736.419 213.381 735.609 214.839 734.961 216.135C733.017 220.669 731.721 226.338 731.073 233.14C730.749 239.942 730.587 247.554 730.587 255.975V300.675C730.587 307.477 730.587 312.174 730.587 314.765C730.587 317.032 730.749 318.814 731.073 320.109L737.877 319.138C738.849 319.138 740.307 319.461 742.251 320.109C744.195 320.433 746.139 321.081 748.084 322.053C750.352 322.701 752.296 323.672 753.916 324.968C755.536 326.264 756.346 327.721 756.346 329.341ZM692.676 348.289C684.9 355.091 677.772 363.513 671.291 373.554C664.811 383.271 659.303 393.313 654.766 403.678C650.23 414.367 646.828 424.894 644.56 435.259C641.968 445.948 640.671 455.341 640.671 463.439C640.671 466.03 640.833 469.107 641.157 472.67C641.481 476.557 642.454 480.12 644.074 483.359C645.37 486.922 647.476 489.999 650.392 492.591C653.308 495.182 657.196 496.477 662.057 496.477C666.917 496.477 671.129 494.534 674.693 490.647C678.258 487.084 681.174 482.225 683.442 476.071C685.71 470.241 687.492 463.601 688.788 456.151C690.084 449.025 690.894 441.899 691.218 434.773C691.866 427.647 692.19 420.845 692.19 414.367C692.514 408.212 692.676 403.192 692.676 399.305V348.289Z" fill="#1A535C"/>
<path d="M887.247 357.521C880.767 351.043 875.42 341.163 871.208 327.883C870.236 329.827 868.94 334.037 867.32 340.516C866.024 346.994 863.918 353.796 861.002 360.922C858.085 367.724 854.197 374.04 849.337 379.87C844.801 385.377 838.968 388.13 831.84 388.13C811.103 388.13 796.846 382.138 789.069 370.153C781.293 358.169 776.757 340.516 775.461 317.194V200.101C776.109 197.834 776.433 196.214 776.433 195.243C776.757 194.271 778.215 193.785 780.807 193.785C782.427 193.785 785.181 194.109 789.069 194.757C793.282 195.405 797.494 196.376 801.706 197.672C805.918 198.644 809.645 200.101 812.885 202.045C816.449 203.988 818.231 206.255 818.231 208.847V294.844C818.231 300.675 818.231 307.153 818.231 314.279C818.555 321.405 819.041 328.045 819.689 334.199C820.661 340.03 822.119 345.05 824.063 349.261C826.008 353.148 828.762 355.091 832.326 355.091C841.722 355.091 849.013 345.698 854.197 326.911C859.381 307.801 862.298 277.839 862.946 237.027C862.946 234.436 862.298 231.844 861.002 229.253C859.705 226.662 859.057 223.585 859.057 220.022C859.705 217.43 862.298 215.811 866.834 215.163C871.694 214.515 876.068 214.191 879.957 214.191C889.677 214.191 896.806 215.163 901.342 217.106C905.878 219.05 908.146 224.88 908.146 234.597C907.498 240.428 906.85 245.125 906.202 248.688C905.878 251.927 905.554 255.004 905.23 257.919C905.23 260.51 905.068 263.425 904.744 266.664C904.744 269.58 904.744 273.952 904.744 279.783C904.744 287.233 905.068 295.006 905.716 303.104C906.364 311.202 907.498 318.652 909.118 325.454C910.738 332.256 912.682 337.924 914.951 342.459C917.543 346.67 920.783 348.775 924.671 348.775C928.235 348.775 930.99 347.803 932.934 345.86C934.878 343.593 936.66 341.163 938.28 338.572C939.9 335.981 941.52 333.713 943.14 331.77C944.76 329.503 947.028 328.369 949.945 328.369C952.537 328.369 954.481 329.341 955.777 331.284C957.073 332.904 957.721 334.523 957.721 336.143C957.721 342.297 956.101 347.48 952.861 351.69C949.945 355.901 946.218 359.302 941.682 361.894C937.47 364.485 933.096 366.428 928.559 367.724C924.023 368.696 920.297 369.181 917.381 369.181C911.872 369.181 907.174 368.534 903.286 367.238C899.398 365.942 895.509 363.999 891.621 361.408L887.247 357.521Z" fill="#1A535C"/>
<path d="M1061.89 349.747C1061.89 357.521 1059.3 363.513 1054.11 367.724C1048.93 371.935 1042.94 375.012 1036.13 376.955C1029.65 378.899 1023.01 380.032 1016.2 380.356C1009.72 381.004 1005.03 381.328 1002.11 381.328C997.573 381.328 991.902 380.842 985.098 379.87C978.618 378.899 972.137 377.441 965.657 375.498C959.501 373.23 954.154 370.153 949.618 366.266C945.406 362.379 943.3 357.521 943.3 351.69C943.3 348.127 944.596 345.698 947.188 344.402C950.104 342.783 952.858 341.973 955.45 341.973C959.015 341.973 962.417 343.269 965.657 345.86C969.221 348.451 972.785 351.205 976.35 354.12C980.238 357.035 984.45 359.788 988.986 362.379C993.523 364.971 998.707 366.266 1004.54 366.266C1007.13 366.266 1010.53 365.456 1014.75 363.837C1019.28 361.893 1021.55 358.654 1021.55 354.12C1021.55 349.585 1019.61 345.212 1015.72 341.001C1012.15 336.791 1007.46 332.418 1001.62 327.883C996.115 323.348 990.12 318.652 983.64 313.793C977.16 308.934 971.003 303.752 965.171 298.245C959.663 292.415 954.964 286.099 951.076 279.297C947.512 272.495 945.73 265.045 945.73 256.947C945.73 245.61 949.294 236.055 956.422 228.281C963.875 220.507 972.461 214.353 982.182 209.818C992.226 205.284 1002.43 202.045 1012.8 200.101C1023.17 198.158 1031.27 197.186 1037.1 197.186C1042.61 197.186 1048.12 198.32 1053.63 200.587C1059.14 202.854 1061.89 207.227 1061.89 213.705C1061.89 215.649 1061.4 218.564 1060.43 222.451C1059.78 226.014 1058.49 229.577 1056.54 233.14C1054.92 236.703 1052.66 239.942 1049.74 242.857C1046.82 245.448 1043.1 246.744 1038.56 246.744C1037.27 246.744 1035.97 246.258 1034.67 245.286C1033.38 243.991 1031.92 242.695 1030.3 241.4C1028.68 239.78 1026.9 238.484 1024.95 237.513C1023.33 236.217 1021.39 235.569 1019.12 235.569C1007.78 235.569 999.841 238.97 995.305 245.772C990.768 252.25 988.5 259.215 988.5 266.664C988.5 273.143 992.226 279.945 999.679 287.071C1007.46 294.197 1015.88 301.323 1024.95 308.449C1034.35 315.575 1042.77 322.701 1050.23 329.827C1058 336.629 1061.89 343.269 1061.89 349.747Z" fill="#1A535C"/>
<path d="M1072.36 291.929C1072.68 275.41 1073.17 258.567 1073.82 241.4C1074.47 224.232 1075.11 208.361 1075.76 193.785C1075.76 191.194 1073.17 189.412 1067.98 188.441C1062.8 187.469 1056.97 186.497 1050.49 185.525C1044.01 184.554 1038.18 183.096 1032.99 181.153C1027.81 178.885 1025.21 175.322 1025.21 170.464C1025.21 166.253 1029.43 163.823 1037.85 163.176C1046.28 162.528 1058.75 162.204 1075.28 162.204C1076.57 162.204 1077.38 160.261 1077.71 156.374C1078.35 152.487 1078.68 147.628 1078.68 141.798C1079 135.643 1079.16 129.165 1079.16 122.363C1079.49 115.561 1079.81 109.245 1080.14 103.415C1080.46 97.2603 1080.95 92.2397 1081.59 88.3528C1082.57 84.4659 1083.7 82.5225 1085 82.5225C1086.62 82.5225 1089.53 82.8464 1093.74 83.4942C1097.96 84.142 1102.33 85.1137 1106.87 86.4094C1111.4 87.3811 1115.29 88.6767 1118.53 90.2963C1122.1 91.9158 1123.88 93.6973 1123.88 95.6408L1118.53 158.803C1118.53 160.746 1120.15 162.204 1123.39 163.176C1126.96 163.823 1131.33 164.309 1136.51 164.633C1142.02 164.633 1147.69 164.633 1153.53 164.633C1159.68 164.633 1165.35 165.119 1170.54 166.091C1176.04 167.063 1180.42 168.682 1183.66 170.949C1187.22 172.893 1189.01 175.97 1189.01 180.181C1189.01 180.829 1188.68 181.962 1188.03 183.582C1187.39 184.878 1186.58 185.525 1185.6 185.525C1184.96 185.525 1183.98 185.039 1182.69 184.068C1181.72 183.096 1178.8 182.61 1173.94 182.61C1172.64 182.61 1169.08 182.772 1163.25 183.096C1157.41 183.42 1151.26 183.906 1144.78 184.554C1138.3 185.201 1132.3 186.011 1126.79 186.983C1121.61 187.631 1118.69 188.602 1118.05 189.898C1117.72 190.546 1117.24 194.433 1116.59 201.559C1116.26 208.361 1115.78 217.43 1115.13 228.767C1114.81 240.104 1114.48 253.222 1114.16 268.122C1113.83 282.698 1113.67 298.084 1113.67 314.279C1113.67 320.433 1114 326.426 1114.64 332.256C1115.29 338.086 1116.26 343.431 1117.56 348.289C1118.86 352.824 1120.48 356.549 1122.42 359.464C1124.69 362.379 1127.28 363.837 1130.2 363.837C1134.41 363.837 1138.3 362.055 1141.86 358.492C1145.43 354.929 1148.67 350.071 1151.58 343.917C1154.5 337.762 1157.09 330.798 1159.36 323.025C1161.63 315.251 1163.57 307.315 1165.19 299.217C1166.16 294.359 1167.3 290.958 1168.59 289.014C1169.89 286.747 1171.83 285.613 1174.42 285.613C1176.69 285.613 1178.64 286.423 1180.26 288.042C1182.2 289.338 1183.17 292.577 1183.17 297.76C1183.17 300.999 1183.01 303.104 1182.69 304.076C1181.72 309.906 1179.77 318.004 1176.86 328.369C1174.26 338.41 1170.54 348.451 1165.68 358.492C1161.14 368.21 1155.47 376.793 1148.67 384.243C1141.86 391.693 1133.92 395.418 1124.85 395.418C1116.1 395.418 1108.49 392.827 1102.01 387.644C1095.53 382.786 1090.02 375.984 1085.48 367.238C1081.27 358.169 1078.03 347.642 1075.76 335.657C1073.49 323.348 1072.36 310.23 1072.36 296.302V291.929Z" fill="#1A535C"/>
<path d="M1330.65 328.097H1331.37L1391.08 125.317H1430.28L1489.62 328.097H1490.34L1546.45 125.317H1584.22L1509.41 379.87H1472.36L1410.5 175.293H1409.78L1347.92 379.87H1310.87L1236.06 125.317H1274.55L1330.65 328.097Z" fill="#1A535C"/>
<path d="M1709.41 279.559C1709.17 272.848 1707.97 266.616 1705.81 260.863C1703.9 254.871 1700.9 249.718 1696.82 245.403C1692.99 241.089 1688.07 237.733 1682.08 235.336C1676.32 232.699 1669.49 231.381 1661.58 231.381C1654.38 231.381 1647.55 232.699 1641.08 235.336C1634.84 237.733 1629.33 241.089 1624.53 245.403C1619.98 249.718 1616.14 254.871 1613.02 260.863C1610.14 266.616 1608.47 272.848 1607.99 279.559H1709.41ZM1743.58 293.222C1743.58 295.139 1743.58 297.057 1743.58 298.974C1743.58 300.892 1743.46 302.809 1743.22 304.727H1607.99C1608.23 311.918 1609.79 318.749 1612.66 325.221C1615.78 331.453 1619.86 336.965 1624.89 341.759C1629.93 346.313 1635.68 349.909 1642.15 352.545C1648.87 355.182 1655.94 356.5 1663.37 356.5C1674.88 356.5 1684.83 353.984 1693.23 348.95C1701.62 343.917 1708.21 337.804 1713.01 330.614L1736.75 349.669C1727.63 361.654 1716.84 370.522 1704.38 376.275C1692.15 381.788 1678.48 384.544 1663.37 384.544C1650.43 384.544 1638.44 382.387 1627.41 378.073C1616.38 373.758 1606.91 367.766 1599 360.096C1591.08 352.186 1584.85 342.718 1580.29 331.692C1575.74 320.666 1573.46 308.442 1573.46 295.019C1573.46 281.836 1575.62 269.732 1579.93 258.706C1584.49 247.44 1590.72 237.853 1598.64 229.943C1606.55 222.033 1615.9 215.921 1626.69 211.606C1637.48 207.052 1649.11 204.775 1661.58 204.775C1674.04 204.775 1685.31 206.813 1695.38 210.887C1705.69 214.962 1714.33 220.835 1721.28 228.505C1728.47 236.175 1733.99 245.523 1737.82 256.549C1741.66 267.335 1743.58 279.559 1743.58 293.222Z" fill="#1A535C"/>
<path d="M1804.79 352.905V379.87H1772.06V108.059H1805.87V234.976H1806.95C1812.7 226.587 1820.73 219.516 1831.04 213.764C1841.35 207.771 1853.58 204.775 1867.73 204.775C1880.44 204.775 1891.95 207.052 1902.26 211.606C1912.81 216.161 1921.8 222.512 1929.23 230.662C1936.9 238.812 1942.78 248.399 1946.85 259.425C1950.93 270.211 1952.97 281.836 1952.97 294.3C1952.97 306.764 1950.93 318.509 1946.85 329.535C1942.78 340.561 1937.02 350.149 1929.59 358.298C1922.16 366.448 1913.17 372.919 1902.62 377.713C1892.07 382.267 1880.2 384.544 1867.01 384.544C1854.78 384.544 1843.15 381.908 1832.12 376.635C1821.09 371.122 1812.22 363.212 1805.51 352.905H1804.79ZM1918.08 294.3C1918.08 286.39 1916.88 278.72 1914.49 271.29C1912.09 263.859 1908.49 257.268 1903.7 251.515C1898.9 245.763 1892.91 241.208 1885.71 237.853C1878.76 234.497 1870.61 232.819 1861.26 232.819C1852.62 232.819 1844.71 234.497 1837.52 237.853C1830.56 241.208 1824.57 245.763 1819.53 251.515C1814.5 257.268 1810.54 263.859 1807.67 271.29C1805.03 278.72 1803.71 286.51 1803.71 294.66C1803.71 302.809 1805.03 310.599 1807.67 318.03C1810.54 325.46 1814.5 332.052 1819.53 337.804C1824.57 343.317 1830.56 347.752 1837.52 351.107C1844.71 354.463 1852.62 356.141 1861.26 356.141C1870.61 356.141 1878.76 354.463 1885.71 351.107C1892.91 347.512 1898.9 342.838 1903.7 337.085C1908.49 331.333 1912.09 324.741 1914.49 317.311C1916.88 309.88 1918.08 302.21 1918.08 294.3Z" fill="#1A535C"/>
<path d="M2014.72 379.87H1980.91V209.449H2014.72V379.87ZM2020.47 147.968C2020.47 154.2 2018.2 159.354 2013.64 163.428C2009.32 167.503 2004.05 169.54 1997.81 169.54C1991.58 169.54 1986.31 167.503 1981.99 163.428C1977.67 159.114 1975.52 153.96 1975.52 147.968C1975.52 141.736 1977.67 136.583 1981.99 132.508C1986.31 128.194 1991.58 126.036 1997.81 126.036C2004.05 126.036 2009.32 128.194 2013.64 132.508C2018.2 136.583 2020.47 141.736 2020.47 147.968Z" fill="#1A535C"/>
<path d="M2084.76 209.449C2085.24 213.764 2085.6 218.677 2085.84 224.19C2086.08 229.464 2086.2 233.898 2086.2 237.493H2087.27C2089.43 232.939 2092.31 228.744 2095.91 224.909C2099.74 220.835 2104.06 217.359 2108.85 214.483C2113.65 211.367 2118.92 208.97 2124.68 207.292C2130.43 205.614 2136.43 204.775 2142.66 204.775C2153.69 204.775 2163.16 206.693 2171.08 210.528C2178.99 214.123 2185.58 219.037 2190.86 225.269C2196.13 231.501 2199.97 238.812 2202.37 247.201C2205 255.59 2206.32 264.578 2206.32 274.166V379.87H2172.51V285.312C2172.51 278.361 2171.91 271.769 2170.72 265.537C2169.76 259.305 2167.84 253.792 2164.96 248.998C2162.08 244.205 2158.13 240.37 2153.09 237.493C2148.06 234.617 2141.58 233.179 2133.67 233.179C2120.24 233.179 2109.21 238.332 2100.58 248.639C2092.19 258.706 2087.99 272.249 2087.99 289.267V379.87H2054.19V246.122C2054.19 241.568 2054.07 235.696 2053.83 228.505C2053.59 221.314 2053.23 214.962 2052.75 209.449H2084.76Z" fill="#1A535C"/>
<path d="M2350.18 269.492C2350.18 256.788 2346.34 247.44 2338.67 241.448C2331 235.216 2320.81 232.1 2308.1 232.1C2298.51 232.1 2289.4 234.018 2280.76 237.853C2272.37 241.448 2265.3 246.122 2259.54 251.875L2241.56 230.302C2249.95 222.393 2260.14 216.161 2272.13 211.606C2284.36 207.052 2297.43 204.775 2311.33 204.775C2323.56 204.775 2334.11 206.573 2342.99 210.168C2352.1 213.524 2359.53 218.198 2365.28 224.19C2371.04 230.183 2375.35 237.254 2378.23 245.403C2381.11 253.553 2382.55 262.301 2382.55 271.649V346.074C2382.55 351.826 2382.67 357.939 2382.91 364.41C2383.39 370.642 2384.11 375.796 2385.07 379.87H2354.49C2352.58 371.721 2351.62 363.571 2351.62 355.422H2350.54C2344.3 364.53 2336.39 371.601 2326.8 376.635C2317.45 381.668 2306.3 384.185 2293.35 384.185C2286.64 384.185 2279.56 383.226 2272.13 381.309C2264.94 379.631 2258.35 376.754 2252.35 372.68C2246.36 368.605 2241.32 363.212 2237.24 356.5C2233.41 349.789 2231.49 341.52 2231.49 331.692C2231.49 318.749 2234.97 308.562 2241.92 301.132C2248.87 293.461 2257.99 287.709 2269.25 283.874C2280.52 279.799 2293.23 277.162 2307.38 275.964C2321.53 274.765 2335.79 274.166 2350.18 274.166V269.492ZM2341.91 298.615C2333.51 298.615 2324.76 298.974 2315.65 299.693C2306.78 300.412 2298.63 301.851 2291.19 304.008C2284 306.165 2278.01 309.401 2273.21 313.715C2268.42 318.03 2266.02 323.782 2266.02 330.973C2266.02 336.007 2266.98 340.201 2268.9 343.557C2271.05 346.913 2273.81 349.669 2277.17 351.826C2280.52 353.984 2284.24 355.542 2288.32 356.5C2292.39 357.22 2296.59 357.579 2300.9 357.579C2316.73 357.579 2328.84 352.905 2337.23 343.557C2345.86 333.969 2350.18 321.985 2350.18 307.603V298.615H2341.91Z" fill="#1A535C"/>
<path d="M2419.57 246.122C2419.57 241.568 2419.45 235.696 2419.21 228.505C2418.97 221.314 2418.61 214.962 2418.13 209.449H2450.14C2450.62 213.764 2450.98 218.797 2451.22 224.55C2451.46 230.063 2451.58 234.617 2451.58 238.212H2452.66C2457.45 228.145 2464.41 220.116 2473.52 214.123C2482.87 207.891 2493.3 204.775 2504.81 204.775C2510.09 204.775 2514.52 205.255 2518.12 206.213L2516.68 237.493C2511.88 236.295 2506.73 235.696 2501.21 235.696C2493.06 235.696 2485.99 237.254 2479.99 240.37C2474 243.246 2468.96 247.201 2464.89 252.234C2461.05 257.268 2458.17 263.14 2456.26 269.852C2454.34 276.323 2453.38 283.155 2453.38 290.345V379.87H2419.57V246.122Z" fill="#1A535C"/>
<defs>
<clipPath id="clip0">
<rect width="519.545" height="485.863" fill="white" transform="translate(1.54297 0.897598)"/>
</clipPath>
</defs>
</svg>
